{
  "internalSessionLengthMillis": 3600000,
  "reloadUsersInSec": 300,
  "authServerUrl": "http://keycloak-service:8081/",
  "keycloakRealm": "Elogbook",
  "keycloakClient": "elogbook-backend",
  "keycloakAdmin": "admin",
  "keycloakPW": "admin3",
  "maxLoadUsers": 1000
}